<svg xmlns="http://www.w3.org/2000/svg" xmlns:xlink="http://www.w3.org/1999/xlink" width="2614.127" height="567.335" viewBox="0 0 2614.127 567.335">
  <defs>
    <linearGradient id="linear-gradient" x1="1.292" y1="0.181" x2="-0.148" y2="1" gradientUnits="objectBoundingBox">
      <stop offset="0" stop-color="#d81159"/>
      <stop offset="0.401" stop-color="#c11f6a"/>
      <stop offset="1" stop-color="#0496ff"/>
    </linearGradient>
    <clipPath id="clip-path">
      <rect id="Rectangle_27" data-name="Rectangle 27" width="2605.414" height="521.944" fill="url(#linear-gradient)"/>
    </clipPath>
  </defs>
  <g id="Group_75" data-name="Group 75" transform="translate(838.45 -738.199) rotate(1)">
    <g id="Group_26" data-name="Group 26" transform="translate(-816.331 752.56)" clip-path="url(#clip-path)">
      <path id="Path_9" data-name="Path 9" d="M2462.658,57.142c367.534,44.687,179.543,115.979,139.691,189.191s149.158,174.8-218.376,224.717c-367.533,50.391-1293.825,49.112-1610.435,52.44-314.4,3.328-644.291-26.622-739.5-76.539-97.419-50.392,42.067-121.227,73.064-185.405,33.211-63.7-31.467-108.457,63.738-153.144C268.263,63.714,523.349,19.568,846.6,7.208S1969.477-5.64,2337.01,38.572" transform="translate(0.01 -1.798)" fill="url(#linear-gradient)"/>
    </g>
  </g>
</svg>
