<?xml version="1.0" encoding="utf-8"?>
<!-- Generator: Adobe Illustrator 26.0.2, SVG Export Plug-In . SVG Version: 6.00 Build 0)  -->
<!DOCTYPE svg PUBLIC "-//W3C//DTD SVG 1.1//EN" "http://www.w3.org/Graphics/SVG/1.1/DTD/svg11.dtd" [
	<!ENTITY ns_extend "http://ns.adobe.com/Extensibility/1.0/">
	<!ENTITY ns_ai "http://ns.adobe.com/AdobeIllustrator/10.0/">
	<!ENTITY ns_graphs "http://ns.adobe.com/Graphs/1.0/">
	<!ENTITY ns_vars "http://ns.adobe.com/Variables/1.0/">
	<!ENTITY ns_imrep "http://ns.adobe.com/ImageReplacement/1.0/">
	<!ENTITY ns_sfw "http://ns.adobe.com/SaveForWeb/1.0/">
	<!ENTITY ns_custom "http://ns.adobe.com/GenericCustomNamespace/1.0/">
	<!ENTITY ns_adobe_xpath "http://ns.adobe.com/XPath/1.0/">
]>
<svg version="1.1" id="Warstwa_1" xmlns:x="&ns_extend;" xmlns:i="&ns_ai;" xmlns:graph="&ns_graphs;"
	 xmlns="http://www.w3.org/2000/svg" xmlns:xlink="http://www.w3.org/1999/xlink" x="0px" y="0px" viewBox="0 0 32 32"
	 style="enable-background:new 0 0 32 32;" xml:space="preserve">
<style type="text/css">
	.st0{fill:url(#Subtraction_1-2_00000041262504143705299050000015889240428662496418_);}
</style>
<metadata>
	<sfw  xmlns="&ns_sfw;">
		<slices></slices>
		<sliceSourceBounds  bottomLeftOrigin="true" height="32" width="28.4" x="1.8" y="0"></sliceSourceBounds>
	</sfw>
</metadata>
<g transform="matrix(1, 0, 0, 1, 0, 0)">
	
		<linearGradient id="Subtraction_1-2_00000147189150313887696310000010226096196824080314_" gradientUnits="userSpaceOnUse" x1="-523.4467" y1="2.3866" x2="-524.3235" y2="2.3585" gradientTransform="matrix(26.24 -18.24 18.24 26.24 13717.3408 -9608.2588)">
		<stop  offset="0" style="stop-color:#0496FF"/>
		<stop  offset="1" style="stop-color:#D81159"/>
	</linearGradient>
	
		<path id="Subtraction_1-2_00000103267151918269993360000006531245324710209188_" style="fill:url(#Subtraction_1-2_00000147189150313887696310000010226096196824080314_);" d="
		M6.4,32L6.4,32L1.8,0l28.4,15.5l-16.4,1.8L6.4,32z"/>
</g>
</svg>
