<svg xmlns="http://www.w3.org/2000/svg" width="192.462" height="201.359" viewBox="0 0 192.462 201.359">
  <g id="Group_54" data-name="Group 54" transform="matrix(0.966, -0.259, 0.259, 0.966, -1779.329, 132.224)">
    <line id="Line_6" data-name="Line 6" x2="129" y2="129" transform="translate(1744.586 365.586)" fill="none" stroke="#c11f6a" stroke-width="1"/>
    <line id="Line_7" data-name="Line 7" x2="152" y2="152" transform="translate(1744.586 386.586)" fill="none" stroke="#c11f6a" stroke-width="1"/>
    <line id="Line_8" data-name="Line 8" x2="132" y2="132" transform="translate(1744.586 406.586)" fill="none" stroke="#c11f6a" stroke-width="1"/>
  </g>
</svg>
